{
  "products": [
    {
        "names": ["PS4", "Playstation 4"],
        "features": ["Slim", "1TB", "Used", "Like New", "Black", "Not Repaired", "Sony"]
    }
  ],
  "price": 37500,
  "is_new": false,
  "description": "{Selling|For sale|Giving away} {PS4|Playstation 4} in {great|awesome|excellent|superb} condition\n\n{Firmware|OS} Version: 6.00 ({Non-jailbreakable|Unhackable})\nYou can even play {new|latest|recent|current} games which is NOT possible in hacked PS4s\n\nWhat's Included:\n-{PS4|Playstation 4} Slim {1TB|1 Terabyte}\n-{1|One} Controller\n-{Controller|USB} charging cable (bought separately)\n-HDMI cable\n-Power cable\n-{PS4|Playstation 4} Box",
  "insert_index": 4
}